Machine Learning Project
…
# Suppress dplyr summarise grouping warning messages
options(dplyr.summarise.inform = FALSE)

## Add R libraries here
library(tidyverse)
library(tidymodels)
library(vip)
library(rpart.plot)

# Load the dataset
telecom_df <- read_rds(url('https://gmubusinessanalytics.netlify.app/data/telecom_df.rds'))

telecom_df

## # A tibble: 1,175 x 19
##    canceled_service senior_citizen spouse_partner dependents cellular_service
##    <fct>            <fct>          <fct>          <fct>      <fct>           
##  1 no               no             no             no         single_line     
##  2 no               no             yes            yes        single_line     
##  3 no               no             yes            no         multiple_lines  
##  4 yes              yes            yes            no         multiple_lines  
##  5 no               no             no             yes        multiple_lines  
##  6 no               yes            no             no         single_line     
##  7 no               yes            yes            no         multiple_lines  
##  8 no               no             no             no         multiple_lines  
##  9 no               no             yes            yes        single_line     
## 10 no               yes            yes            yes        multiple_lines  
## # ... with 1,165 more rows, and 14 more variables: avg_call_mins <dbl>,
## #   avg_intl_mins <dbl>, internet_service <fct>, online_security <fct>,
## #   online_backup <fct>, device_protection <fct>, tech_support <fct>,
## #   streaming_tv <fct>, streaming_movies <fct>, contract <fct>,
## #   paperless_bill <fct>, payment_method <fct>, months_with_company <dbl>,
## #   monthly_charges <dbl>
…
telecom_train <- telecom_split %>% training()

telecom_test <- telecom_split %>% testing()

Feature Engineering

telecom_recipe <- recipe(canceled_service ~ ., data = telecom_train) %>%
                  step_YeoJohnson(all_numeric(), -all_outcomes()) %>%
                  step_normalize(all_numeric(), -all_outcomes()) %>%
                  step_dummy(all_nominal(), -all_outcomes())

telecom_recipe %>% prep(training = telecom_train) %>% bake(new_data = NULL)

## # A tibble: 882 x 22
##    avg_call_mins avg_intl_mins months_with_com~ monthly_charges canceled_service
##            <dbl>         <dbl>            <dbl>           <dbl> <fct>           
##  1       -0.620      -0.000889            0.334          -0.864 no              
##  2       -1.10        0.646              -0.788          -1.69  no              
##  3        0.0568     -1.45               -0.941           0.668 yes             
##  4        0.238       2.31                1.23            0.450 no              
##  5       -0.620      -0.971              -0.788          -0.381 no              
##  6        0.0985     -0.877              -1.65            0.348 yes             
##  7        2.13       -1.64                0.334           1.25  yes             
##  8       -1.49        0.339              -1.34           -0.240 yes             
##  9       -1.31       -1.48                0.588           1.25  no              
## 10       -0.816      -0.813               1.34           -0.504 no              
## # ... with 872 more rows, and 17 more variables: senior_citizen_no <dbl>,
## #   spouse_partner_no <dbl>, dependents_no <dbl>,
## #   cellular_service_single_line <dbl>, internet_service_digital <dbl>,
## #   online_security_no <dbl>, online_backup_no <dbl>,
## #   device_protection_no <dbl>, tech_support_no <dbl>, streaming_tv_no <dbl>,
## #   streaming_movies_no <dbl>, contract_one_year <dbl>,
## #   contract_two_year <dbl>, paperless_bill_no <dbl>,
## #   payment_method_credit_card <dbl>, payment_method_electronic_check <dbl>,
## #   payment_method_mailed_check <dbl>
…
# Let us predict the categories
logistic_pred_categories <- predict(logistic_fit, new_data = telecom_test)
logistic_pred_categories

## # A tibble: 293 x 1
##    .pred_class
##    <fct>      
##  1 no         
##  2 no         
##  3 no         
##  4 no         
##  5 no         
##  6 no         
##  7 no         
##  8 yes        
##  9 yes        
## 10 no         
## # ... with 283 more rows

# Examine predicted probabilities
logistic_probabilities <- predict(logistic_fit, new_data = telecom_test, type = 'prob')
logistic_probabilities

## # A tibble: 293 x 2
##    .pred_yes .pred_no
##        <dbl>    <dbl>
##  1    0.0505    0.949
##  2    0.438     0.562
##  3    0.497     0.503
##  4    0.167     0.833
##  5    0.0765    0.924
##  6    0.197     0.803
##  7    0.200     0.800
##  8    0.899     0.101
##  9    0.626     0.374
## 10    0.455     0.545
## # ... with 283 more rows

# Combine with the true values
log_test_results <- telecom_test %>% select(canceled_service) %>%
                    bind_cols(logistic_pred_categories) %>%
                    bind_cols(logistic_probabilities)
log_test_results

## # A tibble: 293 x 4
##    canceled_service .pred_class .pred_yes .pred_no
##    <fct>            <fct>           <dbl>    <dbl>
##  1 no               no             0.0505    0.949
##  2 no               no             0.438     0.562
##  3 no               no             0.497     0.503
##  4 no               no             0.167     0.833
##  5 no               no             0.0765    0.924
##  6 no               no             0.197     0.803
##  7 no               no             0.200     0.800
##  8 yes              yes            0.899     0.101
##  9 no               yes            0.626     0.374
## 10 yes              no             0.455     0.545
## # ... with 283 more rows
…
# Specificity
spec(log_test_results, truth = canceled_service, estimate = .pred_class)

## # A tibble: 1 x 3
##   .metric .estimator .estimate
##   <chr>   <chr>          <dbl>
## 1 spec    binary         0.872

# ROC Curve
roc_curve(log_test_results, truth = canceled_service, estimate = .pred_yes)

## # A tibble: 295 x 3
##    .threshold specificity sensitivity
##         <dbl>       <dbl>       <dbl>
##  1 -Inf           0                 1
##  2    0.00173     0                 1
##  3    0.00254     0.00535           1
##  4    0.00272     0.0107            1
##  5    0.00299     0.0160            1
##  6    0.00532     0.0214            1
##  7    0.00692     0.0267            1
##  8    0.00828     0.0321            1
##  9    0.0106      0.0374            1
## 10    0.0106      0.0428            1
## # ... with 285 more rows
…
